…
# View the results
install_at |> print()
#> Simple feature collection with 66 features and 5 fields
#> Geometry type: POINT
#> Dimension:     XY
#> Bounding box:  xmin: -140.8773 ymin: 60.00194 xmax: -128.7068 ymax: 68.98877
#> Geodetic CRS:  WGS 84
#> # A tibble: 66 × 6
#>    name      type  prov_terr fcst_zone             geometry ease_of_install
#>  * <chr>     <fct> <fct>     <chr>              <POINT [°]>           <dbl>
#>  1 Whitehor… city  YT        Whitehor… (-135.0549 60.72157)               4
#>  2 Carcross  town  YT        Whitehor… (-134.7087 60.16679)               3
#>  3 Carmacks  town  YT        Pelly - … (-136.2899 62.08877)               3
#>  4 Dawson C… town  YT        Dawson    (-139.4317 64.06066)               3
#>  5 Faro      town  YT        Faro - R… (-133.3553 62.22954)               3
#>  6 Mayo      town  YT        Mayo      (-135.8961 63.59269)               3
#>  7 Ross Riv… town  YT        Faro - R…  (-132.4495 61.9798)               3
#>  8 Watson L… town  YT        Watson L… (-128.7068 60.06243)               3
#>  9 Haines J… vill… YT        Haines J…   (-137.51 60.75272)               2
#> 10 Mount Lo… vill… YT        Whitehor… (-134.8568 60.44817)               2
#> # ℹ 56 more rows
to_cover |> print()
#> Simple feature collection with 105 features and 5 fields
#> Geometry type: POINT
#> Dimension:     XY
#> Bounding box:  xmin: -140.9239 ymin: 60.0065 xmax: -128.6312 ymax: 67.6117
#> Geodetic CRS:  WGS 84
#> # A tibble: 105 × 6
#>    prov_terr fcst_zone         total_land_area total_population rural_population
#>  * <chr>     <chr>                      [km^2]            <int>            <int>
#>  1 YT        Haines Junction              94.3               20               20
#>  2 YT        Kluane Lake                  94.4               50               50
#>  3 YT        Kluane Lake                  42                 55               55
#>  4 YT        Kluane Lake                  41.8               70               70
#>  5 YT        Kluane Lake                  94.2                5                5
#>  6 YT        Beaver Creek,Klu…            94.2               15               15
#>  7 YT        Beaver Creek,Klu…            94.1               25               25
#>  8 YT        Beaver Creek                 85.3               85               85
#>  9 YT        Beaver Creek                 94.1                5                5
#> 10 YT        Pelly - Carmacks…            94.1               20               20
#> # ℹ 95 more rows
#> # ℹ 1 more variable: geometry <POINT [°]>
…
